{
    "KPlugin": {
        "Category": "Appearance",
        "Description": "Make modal dialogs smoothly fly in and out when they are shown or hidden",
        "Description[ar]": "اجعل الحوارات الـ... تطير داخلةً وخارجةً عند إظهارها أو إخفائها",
        "Description[az]": "Modal pəncərələr rəvan şəkildə uçuşla göstərilir və ya gizlədilir",
        "Description[be]": "Мадальныя дыялогавыя вокны плаўна з'яўляюцца з бацькоўскіх акон і знікаюць у іх, калі яны паказваюцца або хаваюцца",
        "Description[bg]": "Създаване на модални диалогови прозорци, които плавно се прелистват, когато се показват или скриват",
        "Description[ca@valencia]": "Fa que els diàlegs modals entren o isquen volant quan es mostren o s'oculten",
        "Description[ca]": "Fa que els diàlegs modals entrin o surtin volant quan es mostren o s'oculten",
        "Description[cs]": "Nechat modální dialogy plynule zmizet/objevit se, pokud jsou zobrazeny resp. skryty",
        "Description[de]": "Lässt modale Dialogfenster langsam herein- bzw. herausschweben",
        "Description[en_GB]": "Make modal dialogues smoothly fly in and out when they are shown or hidden",
        "Description[es]": "Hace que los diálogos modales vuelen suavemente hacia adentro y hacia afuera cuando se muestran u ocultan",
        "Description[et]": "Paneb modaalsed dialoogid sujuvalt peale või ära kerima, kui need nähtavale tuuakse või peidetakse",
        "Description[eu]": "Egin elkarrizketa-koadro modalak leunki hegan sartu edo irteten daitezen haiek erakutsi edo ezkutatzean",
        "Description[fi]": "Lennättää ponnahdusikkunat ruudulle ja ruudulta",
        "Description[fr]": "Fait voler progressivement en avant ou en arrière les boîtes de dialogue modales lors de leurs affichages ou masquages",
        "Description[hu]": "Az ablakok folyamatosan áttűnő módon lesznek elrejtve és megjelenítve",
        "Description[ia]": "Face que le dialogos modal pote volar dulcemente  intra e foras quando illes es monstrate o celate",
        "Description[id]": "Buat sesosok dialog masuk dan keluar, terbang secara lembut ketika ia ditampilkan atau disembunyikan",
        "Description[it]": "Fai planare le finestre modali quando appaiono e scompaiono",
        "Description[ja]": "ダイアログの表示時・非表示時に飛んで来たり飛んで行ったりするアニメーションを使用します",
        "Description[ko]": "모달 대화 상자를 보이거나 숨길 때 부드럽게 날아다니도록 합니다",
        "Description[nl]": "Laat modale dialogen vloeiend in/uitvliegen als ze worden getoond of verborgen",
        "Description[nn]": "Brett undervindauge inn og ut av skjermen",
        "Description[pl]": "Okna dialogowe są gładko wyciągane przy otwieraniu i wsuwane przy zamykaniu",
        "Description[pt]": "Faz com que as janelas modais voem suavemente quando aparecem ou desaparecem",
        "Description[pt_BR]": "Faz as janelas voarem suavemente quando são exibidas ou ocultadas",
        "Description[ro]": "Face dialogurile modale să zboare lin când sunt arătate sau ascunse",
        "Description[ru]": "Плавное появление и скрытие модальных диалогов",
        "Description[sk]": "Modálne dialógy sa plynule objavia/zmiznú pri ich zobrazení alebo skrytí",
        "Description[sl]": "Modalna okna gladko priletijo in odletijo, kadar se prikažejo ali skrijejo",
        "Description[sv]": "Gör att dialogrutor mjukt flyger in eller ut när de visas eller döljs",
        "Description[ta]": "துணை சாளரங்கள் காட்டப்படும்போது அவை பறந்து வருவதுபோல் அசைவூட்டும்",
        "Description[tr]": "Kipsel iletişim kutuları gösterilirken veya gizlenirken pürüzsüzce uçmalarını sağlar",
        "Description[uk]": "Плавне влітання або відлітання вікон під час їх появи або приховування",
        "Description[vi]": "Làm các hộp thoại chế độ bay vào và ra một cách êm dịu khi chúng hiện ra và biến mất",
        "Description[x-test]": "xxMake modal dialogs smoothly fly in and out when they are shown or hiddenxx",
        "Description[zh_CN]": "对话框显示/隐藏时绘制过渡动画",
        "Description[zh_TW]": "讓情境對話框在顯示或隱藏的時候平滑地飛入或飛出",
        "EnabledByDefault": false,
        "License": "GPL",
        "Name": "Sheet",
        "Name[ar]": "ورقة",
        "Name[az]": "Vərəq",
        "Name[be]": "Табліца",
        "Name[bg]": "Лист",
        "Name[ca@valencia]": "Full",
        "Name[ca]": "Full",
        "Name[cs]": "List",
        "Name[de]": "Schweben",
        "Name[en_GB]": "Sheet",
        "Name[es]": "Hoja",
        "Name[et]": "Leht",
        "Name[eu]": "Orria",
        "Name[fi]": "Arkki",
        "Name[fr]": "Feuille",
        "Name[hu]": "Fólia",
        "Name[ia]": "Folio",
        "Name[id]": "Sheet",
        "Name[it]": "Foglio",
        "Name[ja]": "シート",
        "Name[ka]": "ფურცელი",
        "Name[ko]": "시트",
        "Name[nl]": "Werkblad",
        "Name[nn]": "Ark",
        "Name[pl]": "Arkusz",
        "Name[pt]": "Folha",
        "Name[pt_BR]": "Folha",
        "Name[ro]": "Foaie",
        "Name[ru]": "Лист",
        "Name[sk]": "List",
        "Name[sl]": "List",
        "Name[sv]": "Blad",
        "Name[tr]": "Sayfa",
        "Name[uk]": "Аркуш",
        "Name[vi]": "Tấm mỏng",
        "Name[x-test]": "xxSheetxx",
        "Name[zh_CN]": "对话框显隐过渡",
        "Name[zh_TW]": "薄紙"
    }
}
