{
    "KPackageStructure": "KWin/Effect",
    "KPlugin": {
        "Authors": [
            {
                "Email": "thomas.luebking@gmail.com",
                "Name": "Thomas Lübking",
                "Name[ar]": "توماس لوبكينج",
                "Name[be]": "Thomas Lübking",
                "Name[bg]": "Thomas Lübking",
                "Name[ca@valencia]": "Thomas Lübking",
                "Name[ca]": "Thomas Lübking",
                "Name[cs]": "Thomas Lübking",
                "Name[de]": "Thomas Lübking",
                "Name[en_GB]": "Thomas Lübking",
                "Name[es]": "Thomas Lübking",
                "Name[et]": "Thomas Lübking",
                "Name[eu]": "Thomas Lübking",
                "Name[fi]": "Thomas Lübking",
                "Name[fr]": "Thomas Lübking",
                "Name[ia]": "Thomas Lübking",
                "Name[it]": "Thomas Lübking",
                "Name[ka]": "Thomas Lübking",
                "Name[nl]": "Thomas Lübking",
                "Name[nn]": "Thomas Lübking",
                "Name[pl]": "Thomas Lübking",
                "Name[pt]": "Thomas Lübking",
                "Name[ru]": "Thomas Lübking",
                "Name[sl]": "Thomas Lübking",
                "Name[ta]": "தாமஸ் லுபுகிங்",
                "Name[tr]": "Thomas Lübking",
                "Name[uk]": "Thomas Lübking",
                "Name[vi]": "Thomas Lübking",
                "Name[x-test]": "xxThomas Lübkingxx",
                "Name[zh_CN]": "Thomas Lübking",
                "Name[zh_TW]": "Thomas Lübking"
            }
        ],
        "Category": "Show Desktop Animation",
        "Description": "Move windows into screen corners",
        "Description[ar]": "تحرك النوافذ إلى زوايا الشاشة",
        "Description[be]": "Перамяшчэнне акон у куты экрана",
        "Description[bg]": "Преместване на прозорците в ъглите на екрана",
        "Description[ca@valencia]": "Mou les finestres cap als cantons de la pantalla",
        "Description[ca]": "Mou les finestres cap a les cantonades de la pantalla",
        "Description[cs]": "Přesunout okna do rohů obrazovky",
        "Description[de]": "Fenster in Bildschirmecken schieben",
        "Description[en_GB]": "Move windows into screen corners",
        "Description[es]": "Mover las ventanas a las esquinas de la pantalla",
        "Description[et]": "Akende liigutamine ekraani nurkadesse",
        "Description[eu]": "Eraman leihoak pantailako bazterretara",
        "Description[fi]": "Siirrä ikkunat näytön kulmiin",
        "Description[fr]": "Déplacer les fenêtres vers les coins de l'écran",
        "Description[ia]": "Move fenestra in angulos de schermo",
        "Description[it]": "Sposta le finestre negli angoli dello schermo",
        "Description[ka]": "ფანჯრების ეკრანის კუთხეებში გადატანა",
        "Description[nl]": "Verplaats vensters in de hoeken van het scherm",
        "Description[nn]": "Flytt vindauge til skjermhjørne",
        "Description[pl]": "Rozsuwa okna w narożniki ekranu",
        "Description[pt]": "Mover as janelas para os cantos do ecrã",
        "Description[ru]": "Перемещение окон в углы экрана",
        "Description[sl]": "Premaknite okna v kote zaslona",
        "Description[ta]": "சாளரங்களை திரையின் மூலைகளுக்க நகர்த்தும்",
        "Description[tr]": "Pencereleri ekran kenarlarına taşı",
        "Description[uk]": "Пересування вікон до кутів екрана",
        "Description[vi]": "Di chuyển các cửa sổ đến các góc màn hình",
        "Description[x-test]": "xxMove windows into screen cornersxx",
        "Description[zh_CN]": "按下显示桌面时所有窗口被外推到桌面之外消失",
        "Description[zh_TW]": "將視窗移至螢幕角落",
        "EnabledByDefault": true,
        "Icon": "preferences-system-windows-effect-windowaperture",
        "Id": "windowaperture",
        "License": "GPL",
        "Name": "Window Aperture",
        "Name[ar]": "إزاحة النوافذ",
        "Name[be]": "Аконная дыяфрагма",
        "Name[bg]": "Апертура на прозорци",
        "Name[ca@valencia]": "Obriu la finestra",
        "Name[ca]": "Obertura de la finestra",
        "Name[cs]": "Mřížka oken",
        "Name[de]": "Fensteröffnung",
        "Name[en_GB]": "Window Aperture",
        "Name[es]": "Apertura de ventanas",
        "Name[et]": "Aknaava",
        "Name[eu]": "Leihoaren irekiera",
        "Name[fi]": "Ikkuna-aukko",
        "Name[fr]": "Ouverture de fenêtre",
        "Name[ia]": "Aperturas de fenestra",
        "Name[it]": "Apertura delle finestre",
        "Name[ka]": "ფანჯრების წესები",
        "Name[nl]": "Vensteropening",
        "Name[nn]": "Vindaugsflukt",
        "Name[pl]": "Przesłona okna",
        "Name[pt]": "Abertura da Janela",
        "Name[ru]": "Разбрасывание окон в стороны",
        "Name[sl]": "Zaslonka oken",
        "Name[ta]": "ஓரத்தில் சாளரங்கள்",
        "Name[tr]": "Pencere Açıklığı",
        "Name[uk]": "Апертура вікна",
        "Name[vi]": "Độ mở cửa sổ",
        "Name[x-test]": "xxWindow Aperturexx",
        "Name[zh_CN]": "窗口外推",
        "Name[zh_TW]": "視窗光圈",
        "Version": "0.1.0"
    },
    "X-KDE-Ordering": "50",
    "X-KWin-Exclusive-Category": "show-desktop",
    "X-Plasma-API": "javascript",
    "X-Plasma-MainScript": "code/main.js"
}
